{
  "environment": "web",
  "format": "html",
  "prefix": "https://storage.googleapis.com",
  "mainga": "UA-49880327-14",
  "updated": "2020-06-30T18:29:47+02:00",
  "id": "tp0",
  "duration": 6,
  "title": "TP0 - Setup de l'environnement de travail",
  "authors": "OCTO Technology",
  "summary": "TP0 - Setup de l’environnement de travail",
  "source": "tp0.md",
  "theme": "",
  "status": [
    "published"
  ],
  "category": [
    "setup"
  ],
  "tags": [
    "setup"
  ],
  "feedback": "https://gitlab.com/octo-technology/octo-bda/cercle-formation/dsin2/-/issues/new",
  "url": "tp0"
}
